…
}
```

``` r
return_phrases_drm_baby_beluga() |> 
  parse_phrases_drm()
#> Joining with `by = join_by(drm)`
#> # A tibble: 63 × 5
#> # Groups:   id_phrase [9]
#>    id_phrase id_in_phrase drm   doremi  freq
#>        <int>        <int> <fct> <fct>  <dbl>
#>  1         1            1 m     mi      557.
#>  2         1            2 m     mi      557.
#>  3         1            3 r     re      495 
#>  4         1            4 d     do      440 
#>  5         1            5 S     sol     330 
#>  6         1            6 d     do      440 
#>  7         1            7 r     re      495 
#>  8         1            8 m     mi      557.
#>  9         1            9 m     mi      557.
#> 10         1           10 d     do      440 
#> # ℹ 53 more rows

return_phrases_lyrics_baby_beluga() |> 
  parse_phrases_lyrics()
#> # A tibble: 64 × 3
#> # Groups:   id_phrase [9]
#>    id_phrase id_in_phrase lyric
#>        <int>        <int> <chr>
#>  1         1            1 Ba   
#>  2         1            2 by   
#>  3         1            3 Be   
#>  4         1            4 lu   
#>  5         1            5 ga   
#>  6         1            6 in   
#>  7         1            7 the  
#>  8         1            8 deep 
#>  9         1            9 blue 
#> 10         1           10 sea  
#> # ℹ 54 more rows
```
…
# time_span() |> dplyr::bind_cols(data.frame(rythm=return_rythem_baby_beluga()))
```

``` r
join_phrases_drm_lyrics(
  drm_phrases = return_phrases_drm_baby_beluga(), 
  lyrics_phrases = return_phrases_lyrics_baby_beluga() 
  )
#> Joining with `by = join_by(drm)`
#> Joining with `by = join_by(id_phrase, id_in_phrase)`
#> # A tibble: 64 × 6
#> # Groups:   id_phrase [9]
#>    id_phrase id_in_phrase drm   doremi  freq lyric
#>        <int>        <int> <fct> <fct>  <dbl> <chr>
#>  1         1            1 m     mi      557. Ba   
#>  2         1            2 m     mi      557. by   
#>  3         1            3 r     re      495  Be   
#>  4         1            4 d     do      440  lu   
#>  5         1            5 S     sol     330  ga   
#>  6         1            6 d     do      440  in   
#>  7         1            7 r     re      495  the  
#>  8         1            8 m     mi      557. deep 
#>  9         1            9 m     mi      557. blue 
#> 10         1           10 d     do      440  sea  
#> # ℹ 54 more rows
```
…
